Lab-03
…
my.state <- "Colorado"

colorado <- covid_data |>
  filter(state == my.state) |>
  group_by(county) |>
  arrange(date) |>
   mutate(
    new_cases = cases - lag(cases),
    new_deaths = deaths - lag(deaths)
  ) |>
  ungroup()

print(colorado)

# A tibble: 49,527 × 8
   date       county    state    fips  cases deaths new_cases new_deaths
   <date>     <chr>     <chr>    <chr> <dbl>  <dbl>     <dbl>      <dbl>
 1 2020-03-05 Douglas   Colorado 08035     1      0        NA         NA
 2 2020-03-05 Jefferson Colorado 08059     1      0        NA         NA
 3 2020-03-06 Denver    Colorado 08031     2      0        NA         NA
 4 2020-03-06 Douglas   Colorado 08035     3      0         2          0
 5 2020-03-06 Eagle     Colorado 08037     1      0        NA         NA
 6 2020-03-06 El Paso   Colorado 08041     1      0        NA         NA
 7 2020-03-06 Jefferson Colorado 08059     1      0         0          0
 8 2020-03-07 Denver    Colorado 08031     2      0         0          0
 9 2020-03-07 Douglas   Colorado 08035     3      0         0          0
10 2020-03-07 Eagle     Colorado 08037     1      0         0          0
# ℹ 49,517 more rows
…
pop_url <- 'https://www2.census.gov/programs-surveys/popest/datasets/2020-2023/counties/totals/co-est2023-alldata.csv'
population_data <- read_csv(pop_url)

Rows: 3195 Columns: 67
── Column specification ────────────────────────────────────────────────────────
Delimiter: ","
chr  (5): SUMLEV, STATE, COUNTY, STNAME, CTYNAME
dbl (62): REGION, DIVISION, ESTIMATESBASE2020, POPESTIMATE2020, POPESTIMATE2...

ℹ Use `spec()` to retrieve the full column specification for this data.
ℹ Specify the column types or set `show_col_types = FALSE` to quiet this message.

print(population_data)

# A tibble: 3,195 × 67
   SUMLEV REGION DIVISION STATE COUNTY STNAME  CTYNAME         ESTIMATESBASE2020
   <chr>   <dbl>    <dbl> <chr> <chr>  <chr>   <chr>                       <dbl>
 1 040         3        6 01    000    Alabama Alabama                   5024294
 2 050         3        6 01    001    Alabama Autauga County              58809
 3 050         3        6 01    003    Alabama Baldwin County             231768
 4 050         3        6 01    005    Alabama Barbour County              25229
 5 050         3        6 01    007    Alabama Bibb County                 22301
 6 050         3        6 01    009    Alabama Blount County               59130
 7 050         3        6 01    011    Alabama Bullock County              10360
 8 050         3        6 01    013    Alabama Butler County               19046
 9 050         3        6 01    015    Alabama Calhoun County             116441
10 050         3        6 01    017    Alabama Chambers County             34772
# ℹ 3,185 more rows
# ℹ 59 more variables: POPESTIMATE2020 <dbl>, POPESTIMATE2021 <dbl>,
#   POPESTIMATE2022 <dbl>, POPESTIMATE2023 <dbl>, NPOPCHG2020 <dbl>,
#   NPOPCHG2021 <dbl>, NPOPCHG2022 <dbl>, NPOPCHG2023 <dbl>, BIRTHS2020 <dbl>,
#   BIRTHS2021 <dbl>, BIRTHS2022 <dbl>, BIRTHS2023 <dbl>, DEATHS2020 <dbl>,
#   DEATHS2021 <dbl>, DEATHS2022 <dbl>, DEATHS2023 <dbl>, NATURALCHG2020 <dbl>,
#   NATURALCHG2021 <dbl>, NATURALCHG2022 <dbl>, NATURALCHG2023 <dbl>, …

#3
population_data <- population_data |>
  mutate(
    STATE = sprintf("%02d", as.numeric(STATE)),
    COUNTY = sprintf("%03d", as.numeric(COUNTY)),
    FIP = paste0(STATE, COUNTY)
  )

print(population_data)

# A tibble: 3,195 × 68
   SUMLEV REGION DIVISION STATE COUNTY STNAME  CTYNAME         ESTIMATESBASE2020
   <chr>   <dbl>    <dbl> <chr> <chr>  <chr>   <chr>                       <dbl>
 1 040         3        6 01    000    Alabama Alabama                   5024294
 2 050         3        6 01    001    Alabama Autauga County              58809
 3 050         3        6 01    003    Alabama Baldwin County             231768
 4 050         3        6 01    005    Alabama Barbour County              25229
 5 050         3        6 01    007    Alabama Bibb County                 22301
 6 050         3        6 01    009    Alabama Blount County               59130
 7 050         3        6 01    011    Alabama Bullock County              10360
 8 050         3        6 01    013    Alabama Butler County               19046
 9 050         3        6 01    015    Alabama Calhoun County             116441
10 050         3        6 01    017    Alabama Chambers County             34772
# ℹ 3,185 more rows
# ℹ 60 more variables: POPESTIMATE2020 <dbl>, POPESTIMATE2021 <dbl>,
#   POPESTIMATE2022 <dbl>, POPESTIMATE2023 <dbl>, NPOPCHG2020 <dbl>,
#   NPOPCHG2021 <dbl>, NPOPCHG2022 <dbl>, NPOPCHG2023 <dbl>, BIRTHS2020 <dbl>,
#   BIRTHS2021 <dbl>, BIRTHS2022 <dbl>, BIRTHS2023 <dbl>, DEATHS2020 <dbl>,
#   DEATHS2021 <dbl>, DEATHS2022 <dbl>, DEATHS2023 <dbl>, NATURALCHG2020 <dbl>,
#   NATURALCHG2021 <dbl>, NATURALCHG2022 <dbl>, NATURALCHG2023 <dbl>, …

#3.1
population_data <- population_data |>
  select(matches("NAME|2021"), FIP) |>
  filter("COUNTY" != "000")

print(population_data)

# A tibble: 3,195 × 19
   STNAME  CTYNAME         POPESTIMATE2021 NPOPCHG2021 BIRTHS2021 DEATHS2021
   <chr>   <chr>                     <dbl>       <dbl>      <dbl>      <dbl>
 1 Alabama Alabama                 5050380       18516      57184      69135
 2 Alabama Autauga County            59203         288        686        696
 3 Alabama Baldwin County           239439        6212       2337       2948
 4 Alabama Barbour County            24533        -436        270        390
 5 Alabama Bibb County               22359         171        240        325
 6 Alabama Blount County             59079         -28        654        875
 7 Alabama Bullock County            10143         -86        111        160
 8 Alabama Butler County             18890        -135        227        297
 9 Alabama Calhoun County           115678        -565       1250       1843
10 Alabama Chambers County           34488        -163        392        592
# ℹ 3,185 more rows
# ℹ 13 more variables: NATURALCHG2021 <dbl>, INTERNATIONALMIG2021 <dbl>,
#   DOMESTICMIG2021 <dbl>, NETMIG2021 <dbl>, RESIDUAL2021 <dbl>,
#   GQESTIMATES2021 <dbl>, RBIRTH2021 <dbl>, RDEATH2021 <dbl>,
#   RNATURALCHG2021 <dbl>, RINTERNATIONALMIG2021 <dbl>, RDOMESTICMIG2021 <dbl>,
#   RNETMIG2021 <dbl>, FIP <chr>
…
#3.4
colorado_merged <- colorado |>
  mutate(county = paste0(county, " County")) |>
  full_join(colorado_populations, by = c("county" = "CTYNAME"))

colorado_per_capita <- colorado_merged |>
  mutate(
    per_capita_cases = cases / POPESTIMATE2021,
    per_capita_new_cases = new_cases / POPESTIMATE2021,
    per_capita_new_deaths = new_deaths / POPESTIMATE2021
  )

print(colorado_per_capita)

# A tibble: 49,528 × 29
   date       county        state fips  cases deaths new_cases new_deaths STNAME
   <date>     <chr>         <chr> <chr> <dbl>  <dbl>     <dbl>      <dbl> <chr> 
 1 2020-03-05 Douglas Coun… Colo… 08035     1      0        NA         NA Color…
 2 2020-03-05 Jefferson Co… Colo… 08059     1      0        NA         NA Color…
 3 2020-03-06 Denver County Colo… 08031     2      0        NA         NA Color…
 4 2020-03-06 Douglas Coun… Colo… 08035     3      0         2          0 Color…
 5 2020-03-06 Eagle County  Colo… 08037     1      0        NA         NA Color…
 6 2020-03-06 El Paso Coun… Colo… 08041     1      0        NA         NA Color…
 7 2020-03-06 Jefferson Co… Colo… 08059     1      0         0          0 Color…
 8 2020-03-07 Denver County Colo… 08031     2      0         0          0 Color…
 9 2020-03-07 Douglas Coun… Colo… 08035     3      0         0          0 Color…
10 2020-03-07 Eagle County  Colo… 08037     1      0         0          0 Color…
# ℹ 49,518 more rows
# ℹ 20 more variables: POPESTIMATE2021 <dbl>, NPOPCHG2021 <dbl>,
#   BIRTHS2021 <dbl>, DEATHS2021 <dbl>, NATURALCHG2021 <dbl>,
#   INTERNATIONALMIG2021 <dbl>, DOMESTICMIG2021 <dbl>, NETMIG2021 <dbl>,
#   RESIDUAL2021 <dbl>, GQESTIMATES2021 <dbl>, RBIRTH2021 <dbl>,
#   RDEATH2021 <dbl>, RNATURALCHG2021 <dbl>, RINTERNATIONALMIG2021 <dbl>,
#   RDOMESTICMIG2021 <dbl>, RNETMIG2021 <dbl>, FIP <chr>, …
…
state_covid <- covid_data %>%
  group_by(date, state) %>%
  summarise(cases = sum(cases), .groups = 'drop') %>%
  filter(state %in% c('New York', "Ohio", 'Colorado', "Alabama")) %>%
  group_by(state) %>%
  mutate(
    newCases = cases - lag(cases),  # Calculate daily new cases
    roll = zoo::rollmean(newCases, k = 7, align = "right", fill = NA)
  ) %>%
  ungroup()

print(state_covid)

# A tibble: 3,192 × 5
   date       state    cases newCases  roll
   <date>     <chr>    <dbl>    <dbl> <dbl>
 1 2020-03-01 New York     1       NA    NA
 2 2020-03-02 New York     1        0    NA
 3 2020-03-03 New York     2        1    NA
 4 2020-03-04 New York    11        9    NA
 5 2020-03-05 Colorado     2       NA    NA
 6 2020-03-05 New York    22       11    NA
 7 2020-03-06 Colorado     8        6    NA
 8 2020-03-06 New York    44       22    NA
 9 2020-03-07 Colorado     8        0    NA
10 2020-03-07 New York    89       45    NA
# ℹ 3,182 more rows
…
pp <- pop %>%
  group_by(STNAME) %>%
  summarise(state_pop = sum(POPESTIMATE2021, na.rm = TRUE)) %>%
  inner_join(state_covid, by = c("STNAME" = "state")) %>%
  mutate(perCap = newCases / state_pop) %>%  
  group_by(STNAME) %>%
  mutate(roll = zoo::rollmean(perCap, k = 7, align = "right", fill = NA)) %>% 
  ungroup()

print(pp)

# A tibble: 3,192 × 7
   STNAME  state_pop date       cases newCases        roll       perCap
   <chr>       <int> <date>     <dbl>    <dbl>       <dbl>        <dbl>
 1 Alabama  10100760 2020-03-13     6       NA NA          NA          
 2 Alabama  10100760 2020-03-14    12        6 NA           0.000000594
 3 Alabama  10100760 2020-03-15    23       11 NA           0.00000109 
 4 Alabama  10100760 2020-03-16    29        6 NA           0.000000594
 5 Alabama  10100760 2020-03-17    39       10 NA           0.000000990
 6 Alabama  10100760 2020-03-18    51       12 NA           0.00000119 
 7 Alabama  10100760 2020-03-19    78       27 NA           0.00000267 
 8 Alabama  10100760 2020-03-20   106       28  0.00000141  0.00000277 
 9 Alabama  10100760 2020-03-21   131       25  0.00000168  0.00000248 
10 Alabama  10100760 2020-03-22   157       26  0.00000190  0.00000257 
# ℹ 3,182 more rows
…
